Number of buckets is: 5
Origin: {Destination, Weight}
e: {e d 4} {e c 5} {e b 5} 
d: {d e 4} {d c 4} {d b 6} {d a 2} 
c: {c e 5} {c d 4} {c a 5} 
b: {b e 5} {b d 6} {b a 9} 
a: {a d 2} {a c 5} {a b 9} 

Initialized Priority Queue:
e 0
c 2147483647
a 2147483647
d 2147483647
b 2147483647

Initialize Solution Hash Table:
e - 0

Next Priority Queue:
d 4
b 5
c 5
a 2147483647

Next Solution Hash Table:
b e 5
d e 4
c e 5
e - 0

Next Priority Queue:
a 2
c 4
b 5

Next Solution Hash Table:
a d 2
b e 5
d e 4
c d 4
e - 0

Next Priority Queue:
c 4
b 5

Next Solution Hash Table:
a d 2
b e 5
d e 4
c d 4
e - 0

Next Priority Queue:
b 5

Next Solution Hash Table:
a d 2
b e 5
d e 4
c d 4
e - 0

Next Priority Queue:

Next Solution Hash Table:
a d 2
b e 5
d e 4
c d 4
e - 0

Final Minimum Spanning Tree Directed Graph: 
Number of buckets is: 2
Origin: {Destination, Weight}
e: {e b 5} {e d 4} 
d: {d a 2} {d c 4} 

